{
    "uid": "IDF_intro_to_Sockets",
    "TRN_EVL_ID": "IDF",
    "NETWORK": "Commercial",
    "KSATs": [
        [
            "A0630",
            " "
        ],
        [
            "A0631",
            " "
        ],
        [
            "K0632",
            " "
        ],
        [
            "K0063",
            " "
        ],
        [
            "K0064",
            " "
        ],
        [
            "K0065",
            " "
        ],
        [
            "K0066",
            " "
        ],
        [
            "K0068",
            " "
        ],
        [
            "K0069",
            " "
        ],
        [
            "K0070",
            " "
        ],
        [
            "K0071",
            " "
        ],
        [
            "K0072",
            " "
        ],
        [
            "K0073",
            " "
        ],
        [
            "K0081",
            " "
        ],
        [
            "K0082",
            " "
        ],
        [
            "K0086",
            " "
        ]
    ],
    "subject": "Intro_to_Sockets",
    "lesson": "",
    "lecture_time": 0,
    "perf_demo_time": 0,
    "references": [],
    "lesson_objectives": [],
    "performance_objectives": [],
    "workroles": [
        "basic-dev"
    ]
}